\relax 
\@writefile{loa}{\addvspace {10\p@ }}
\@writefile{toc}{\contentsline {chapter}{个人简历、在学期间发表的学术论文及研究成果}{44}{chapter*.10}}
\@setckpt{body/aboutme}{
\setcounter{page}{45}
\setcounter{equation}{0}
\setcounter{enumi}{0}
\setcounter{enumii}{0}
\setcounter{enumiii}{0}
\setcounter{enumiv}{23}
\setcounter{footnote}{0}
\setcounter{mpfootnote}{0}
\setcounter{CTEX@sectiondepth}{2}
\setcounter{part}{0}
\setcounter{chapter}{6}
\setcounter{section}{0}
\setcounter{subsection}{1}
\setcounter{subsubsection}{0}
\setcounter{paragraph}{0}
\setcounter{subparagraph}{0}
\setcounter{figure}{4}
\setcounter{table}{0}
\setcounter{fontspec_tmp_int}{0}
\setcounter{parentequation}{0}
\setcounter{Item}{0}
\setcounter{Hfootnote}{0}
\setcounter{Hy@AnnotLevel}{0}
\setcounter{bookmark@seq@number}{31}
\setcounter{AlgoLine}{0}
\setcounter{algocfline}{0}
\setcounter{algocfproc}{0}
\setcounter{algocf}{0}
\setcounter{definition}{0}
\setcounter{proposition}{0}
\setcounter{property}{0}
\setcounter{lemma}{0}
\setcounter{theorem}{0}
\setcounter{corollary}{0}
\setcounter{example}{0}
\setcounter{remark}{0}
\setcounter{section@level}{3}
\setcounter{thm}{0}
}
