\relax 
\@writefile{loa}{\addvspace {10\p@ }}
\@writefile{toc}{\contentsline {chapter}{\numberline {第3\ignorespaces  章\hspace  {0.3em}}数值方法}{14}{chapter.3}}
\@writefile{lof}{\addvspace {10\p@ }}
\@writefile{lot}{\addvspace {10\p@ }}
\@writefile{toc}{\contentsline {section}{\numberline {3.1}相场晶体模型的拟谱方法}{14}{section.3.1}}
\@writefile{toc}{\contentsline {section}{\numberline {3.2}半隐时间离散}{16}{section.3.2}}
\@writefile{toc}{\contentsline {section}{\numberline {3.3}理论分析}{17}{section.3.3}}
\newlabel{thm1}{{3.3.1}{17}{理论分析\relax }{thm.3.3.1}{}}
\newlabel{定理}{{3.3.1}{19}{理论分析\relax }{theorem.3.3.1}{}}
\@setckpt{body/bibliography}{
\setcounter{page}{22}
\setcounter{equation}{47}
\setcounter{enumi}{0}
\setcounter{enumii}{0}
\setcounter{enumiii}{0}
\setcounter{enumiv}{0}
\setcounter{footnote}{0}
\setcounter{mpfootnote}{0}
\setcounter{CTEX@sectiondepth}{2}
\setcounter{part}{0}
\setcounter{chapter}{3}
\setcounter{section}{3}
\setcounter{subsection}{0}
\setcounter{subsubsection}{0}
\setcounter{paragraph}{0}
\setcounter{subparagraph}{0}
\setcounter{figure}{0}
\setcounter{table}{0}
\setcounter{fontspec_tmp_int}{0}
\setcounter{parentequation}{0}
\setcounter{Item}{0}
\setcounter{Hfootnote}{0}
\setcounter{Hy@AnnotLevel}{0}
\setcounter{bookmark@seq@number}{17}
\setcounter{AlgoLine}{0}
\setcounter{algocfline}{0}
\setcounter{algocfproc}{0}
\setcounter{algocf}{0}
\setcounter{definition}{0}
\setcounter{proposition}{0}
\setcounter{property}{0}
\setcounter{lemma}{0}
\setcounter{theorem}{1}
\setcounter{corollary}{0}
\setcounter{example}{0}
\setcounter{remark}{0}
\setcounter{section@level}{1}
\setcounter{thm}{1}
}
