\relax 
\@writefile{loa}{\addvspace {10\p@ }}
\@writefile{toc}{\contentsline {chapter}{\numberline {第4\ignorespaces  章\hspace  {0.3em}}两尺度模型下晶体种子的两种生长模式}{18}{chapter.4}}
\@writefile{lof}{\addvspace {10\p@ }}
\@writefile{lot}{\addvspace {10\p@ }}
\@writefile{toc}{\contentsline {section}{\numberline {4.1}$\mathaccentV {bar}C16{\psi }=-0.18$}{18}{section.4.1}}
\@writefile{lof}{\contentsline {figure}{\numberline {4.1}{\ignorespaces 图中纵坐标表示温度参数$\varepsilon $，图中横坐标表示晶体种子晶粒的圈数，$\mathaccentV {bar}C16{\psi }=-0.18$.}}{18}{figure.4.1}}
\newlabel{fig:test2}{{4.1}{18}{图中纵坐标表示温度参数$\varepsilon $，图中横坐标表示晶体种子晶粒的圈数，$\bar {\psi }=-0.18$}{figure.4.1}{}}
\@writefile{lof}{\contentsline {figure}{\numberline {4.2}{\ignorespaces $\varepsilon =0.3，\mathaccentV {bar}C16{\psi }=-0.18，c=1$,收敛相为压缩六转晶体.}}{19}{figure.4.2}}
\newlabel{fig:test2}{{4.2}{19}{$\varepsilon =0.3，\bar {\psi }=-0.18，c=1$,收敛相为压缩六转晶体}{figure.4.2}{}}
\@writefile{lof}{\contentsline {figure}{\numberline {4.3}{\ignorespaces $\varepsilon =0.3，\mathaccentV {bar}C16{\psi }=-0.18，c=8$,收敛相为压缩六转晶体.}}{19}{figure.4.3}}
\newlabel{fig:test2}{{4.3}{19}{$\varepsilon =0.3，\bar {\psi }=-0.18，c=8$,收敛相为压缩六转晶体}{figure.4.3}{}}
\@writefile{toc}{\contentsline {section}{\numberline {4.2}$\mathaccentV {bar}C16{\psi }=-0.314$}{19}{section.4.2}}
\@writefile{lof}{\contentsline {figure}{\numberline {4.4}{\ignorespaces 图中纵坐标表示温度参数$\varepsilon $，图中横坐标表示晶体种子晶粒的圈数，$\mathaccentV {bar}C16{\psi }=-0.314$.}}{20}{figure.4.4}}
\newlabel{fig:test2}{{4.4}{20}{图中纵坐标表示温度参数$\varepsilon $，图中横坐标表示晶体种子晶粒的圈数，$\bar {\psi }=-0.314$}{figure.4.4}{}}
\@writefile{lof}{\contentsline {figure}{\numberline {4.5}{\ignorespaces $\varepsilon =0.3，\mathaccentV {bar}C16{\psi }=-0.314，c=3$,收敛相为不均匀压缩六转晶体..}}{20}{figure.4.5}}
\newlabel{fig:test2}{{4.5}{20}{$\varepsilon =0.3，\bar {\psi }=-0.314，c=3$,收敛相为不均匀压缩六转晶体.}{figure.4.5}{}}
\@writefile{toc}{\contentsline {section}{\numberline {4.3}两种模式}{20}{section.4.3}}
\@writefile{lof}{\contentsline {figure}{\numberline {4.6}{\ignorespaces 图中第一行和第二行是$\varepsilon =0.018$的晶体生长过程，其中晶粒的圈数为$c=1$.}}{20}{figure.4.6}}
\newlabel{fig:test2}{{4.6}{20}{图中第一行和第二行是$\varepsilon =0.018$的晶体生长过程，其中晶粒的圈数为$c=1$}{figure.4.6}{}}
\@writefile{lof}{\contentsline {figure}{\numberline {4.7}{\ignorespaces 图中第一行和第二行是 $\varepsilon =0.3 $的晶体生长过程，其中晶粒的圈数为$c=1$.}}{21}{figure.4.7}}
\newlabel{fig:test3}{{4.7}{21}{图中第一行和第二行是 $\varepsilon =0.3 $的晶体生长过程，其中晶粒的圈数为$c=1$}{figure.4.7}{}}
\@setckpt{body/expression}{
\setcounter{page}{22}
\setcounter{equation}{0}
\setcounter{enumi}{0}
\setcounter{enumii}{0}
\setcounter{enumiii}{0}
\setcounter{enumiv}{0}
\setcounter{footnote}{0}
\setcounter{mpfootnote}{0}
\setcounter{CTEX@sectiondepth}{2}
\setcounter{part}{0}
\setcounter{chapter}{4}
\setcounter{section}{3}
\setcounter{subsection}{0}
\setcounter{subsubsection}{0}
\setcounter{paragraph}{0}
\setcounter{subparagraph}{0}
\setcounter{figure}{7}
\setcounter{table}{0}
\setcounter{fontspec_tmp_int}{0}
\setcounter{parentequation}{0}
\setcounter{Item}{0}
\setcounter{Hfootnote}{0}
\setcounter{Hy@AnnotLevel}{0}
\setcounter{bookmark@seq@number}{24}
\setcounter{AlgoLine}{0}
\setcounter{algocfline}{0}
\setcounter{algocfproc}{0}
\setcounter{algocf}{0}
\setcounter{definition}{0}
\setcounter{proposition}{0}
\setcounter{property}{0}
\setcounter{lemma}{0}
\setcounter{theorem}{0}
\setcounter{corollary}{0}
\setcounter{example}{0}
\setcounter{remark}{0}
\setcounter{section@level}{1}
\setcounter{thm}{0}
}
