\relax 
\@writefile{loa}{\addvspace {10\p@ }}
\@writefile{toc}{\contentsline {chapter}{\numberline {第6\ignorespaces  章\hspace  {0.3em}}准晶背景下的晶体生长}{28}{chapter.6}}
\@writefile{lof}{\addvspace {10\p@ }}
\@writefile{lot}{\addvspace {10\p@ }}
\newlabel{five}{{6}{28}{准晶背景下的晶体生长\relax }{chapter.6}{}}
\@writefile{toc}{\contentsline {subsubsection}{参数设置}{28}{section*.4}}
\@writefile{toc}{\contentsline {subsubsection}{准晶背景下的晶体生长}{28}{section*.5}}
\@writefile{lof}{\contentsline {figure}{\numberline {6.1}{\ignorespaces 如图，外围为十二转准晶种子，中间为六转晶体。且晶体种子发生旋转，角度为$\theta =4°$.}}{29}{figure.6.1}}
\newlabel{fig:test1}{{6.1}{29}{如图，外围为十二转准晶种子，中间为六转晶体。且晶体种子发生旋转，角度为$\theta =4°$}{figure.6.1}{}}
\@writefile{lof}{\contentsline {figure}{\numberline {6.2}{\ignorespaces 横坐标为计算区域长度和$2 \pi $的比值，纵坐标为误差。}}{30}{figure.6.2}}
\newlabel{fig:test1}{{6.2}{30}{横坐标为计算区域长度和$2 \pi $的比值，纵坐标为误差。\relax }{figure.6.2}{}}
\@writefile{lof}{\contentsline {figure}{\numberline {6.3}{\ignorespaces 图中，晶种的旋转角度为6°；（b）-（f）晶种半径$r=3.3a$的生长过程；（g）-（j）晶种半径$r=3.34a$的生长过程；（k）-（n）晶种半径$r=3.525a$的生长过程。}}{30}{figure.6.3}}
\newlabel{fig:test1}{{6.3}{30}{图中，晶种的旋转角度为6°；（b）-（f）晶种半径$r=3.3a$的生长过程；（g）-（j）晶种半径$r=3.34a$的生长过程；（k）-（n）晶种半径$r=3.525a$的生长过程。\relax }{figure.6.3}{}}
\@writefile{lof}{\contentsline {figure}{\numberline {6.4}{\ignorespaces 蓝线左边的生长相为准晶，蓝色线和红色线之间的生长相为准晶和晶体共存，红色线右边的生长相为晶体相。纵坐标为晶体旋转的度数，横坐标为晶体半径和a的比值。。}}{31}{figure.6.4}}
\newlabel{fig:test1}{{6.4}{31}{蓝线左边的生长相为准晶，蓝色线和红色线之间的生长相为准晶和晶体共存，红色线右边的生长相为晶体相。纵坐标为晶体旋转的度数，横坐标为晶体半径和a的比值。。\relax }{figure.6.4}{}}
\@setckpt{body/five}{
\setcounter{page}{32}
\setcounter{equation}{0}
\setcounter{enumi}{0}
\setcounter{enumii}{0}
\setcounter{enumiii}{0}
\setcounter{enumiv}{0}
\setcounter{footnote}{0}
\setcounter{mpfootnote}{0}
\setcounter{CTEX@sectiondepth}{2}
\setcounter{part}{0}
\setcounter{chapter}{6}
\setcounter{section}{0}
\setcounter{subsection}{1}
\setcounter{subsubsection}{0}
\setcounter{paragraph}{0}
\setcounter{subparagraph}{0}
\setcounter{figure}{4}
\setcounter{table}{0}
\setcounter{fontspec_tmp_int}{0}
\setcounter{parentequation}{0}
\setcounter{Item}{0}
\setcounter{Hfootnote}{0}
\setcounter{Hy@AnnotLevel}{0}
\setcounter{bookmark@seq@number}{30}
\setcounter{AlgoLine}{0}
\setcounter{algocfline}{0}
\setcounter{algocfproc}{0}
\setcounter{algocf}{0}
\setcounter{definition}{0}
\setcounter{proposition}{0}
\setcounter{property}{0}
\setcounter{lemma}{0}
\setcounter{theorem}{0}
\setcounter{corollary}{0}
\setcounter{example}{0}
\setcounter{remark}{0}
\setcounter{section@level}{3}
\setcounter{thm}{0}
}
