\relax 
\@writefile{loa}{\addvspace {10\p@ }}
\@writefile{toc}{\contentsline {chapter}{\numberline {第1\ignorespaces  章\hspace  {0.3em}}引\nobreakspace {}\nobreakspace {}言}{1}{chapter.1}}
\@writefile{lof}{\addvspace {10\p@ }}
\@writefile{lot}{\addvspace {10\p@ }}
\newlabel{chap:introduction}{{1}{1}{引~~言\relax }{chapter.1}{}}
\@writefile{toc}{\contentsline {section}{\numberline {1.1}研究背景}{1}{section.1.1}}
\@writefile{lot}{\contentsline {table}{\numberline {1.1}{\ignorespaces 晶体缺陷分类}}{1}{table.1.1}}
\newlabel{tab:test}{{1.1}{1}{晶体缺陷分类\relax }{table.1.1}{}}
\@writefile{lof}{\contentsline {figure}{\numberline {1.1}{\ignorespaces 经典的空位图像:原子跑掉后, 周围原子只向空位处作稍微移动, 一个明确的空位图像. 结果:破坏点阵的周期排列晶体产生膨胀, 形成一个空位约增加0.05原子体积, 引起少量的点阵畸变.}}{2}{figure.1.1}}
\newlabel{fig:test1}{{1.1}{2}{经典的空位图像:原子跑掉后, 周围原子只向空位处作稍微移动, 一个明确的空位图像. 结果:破坏点阵的周期排列晶体产生膨胀, 形成一个空位约增加0.05原子体积, 引起少量的点阵畸变}{figure.1.1}{}}
\@writefile{lof}{\contentsline {figure}{\numberline {1.2}{\ignorespaces 二维层状相的点缺陷.}}{2}{figure.1.2}}
\newlabel{fig:test1}{{1.2}{2}{二维层状相的点缺陷}{figure.1.2}{}}
\@writefile{toc}{\contentsline {section}{\numberline {1.2}研究现状}{2}{section.1.2}}
\@writefile{toc}{\contentsline {subsection}{\numberline {1.2.1}二维晶体生长}{2}{subsection.1.2.1}}
\@writefile{lof}{\contentsline {figure}{\numberline {1.3}{\ignorespaces 六转晶体和层状相形成的位错.}}{3}{figure.1.3}}
\newlabel{fig:test1}{{1.3}{3}{六转晶体和层状相形成的位错}{figure.1.3}{}}
\@writefile{lof}{\contentsline {figure}{\numberline {1.4}{\ignorespaces 旋转晶体种子的生长过程, 有晶界生成.}}{3}{figure.1.4}}
\newlabel{fig:test1}{{1.4}{3}{旋转晶体种子的生长过程, 有晶界生成}{figure.1.4}{}}
\@writefile{toc}{\contentsline {subsection}{\numberline {1.2.2}二维准晶生长}{3}{subsection.1.2.2}}
\@writefile{lof}{\contentsline {figure}{\numberline {1.5}{\ignorespaces (1）两个原子核在距离d=10σ处面积分数η的角度φ旋转的对相结构的影响. (a）流体, (b) 单晶, 和（c）具有晶界的晶体.（d）-(f）不同核尺寸的相图, 其中蓝色三角形表示流体, 红色（灰色）菱形表示单晶, 深绿色（深灰色)菱形表示具有稳定晶界的结晶区域.粒子数分别为（d）$N_1$ =$N_2$ = 19, （e）$N_1$ = 61, $N_2$ = 37, 和（f）$N_1$ = 37, $N_2$=19.}}{4}{figure.1.5}}
\newlabel{fig:test1}{{1.5}{4}{(1）两个原子核在距离d=10σ处面积分数η的角度φ旋转的对相结构的影响. (a）流体, (b) 单晶, 和（c）具有晶界的晶体.（d）-(f）不同核尺寸的相图, 其中蓝色三角形表示流体, 红色（灰色）菱形表示单晶, 深绿色（深灰色)菱形表示具有稳定晶界的结晶区域.粒子数分别为（d）$N_1$ =$N_2$ = 19, （e）$N_1$ = 61, $N_2$ = 37, 和（f）$N_1$ = 37, $N_2$=19}{figure.1.5}{}}
\@writefile{lof}{\contentsline {figure}{\numberline {1.6}{\ignorespaces 上图为无缺陷的生长模式; 下图为由相位翻转控制的生长模式.}}{5}{figure.1.6}}
\newlabel{fig:test1}{{1.6}{5}{上图为无缺陷的生长模式; 下图为由相位翻转控制的生长模式}{figure.1.6}{}}
\@writefile{lof}{\contentsline {figure}{\numberline {1.7}{\ignorespaces 中间是十二转准晶相图, 上图和下图分别是橙色和红色点的具体生长图.}}{5}{figure.1.7}}
\newlabel{fig:test1}{{1.7}{5}{中间是十二转准晶相图, 上图和下图分别是橙色和红色点的具体生长图}{figure.1.7}{}}
\@writefile{lof}{\contentsline {figure}{\numberline {1.8}{\ignorespaces (a)为M. Schmiedeberg等人实验初值设置.（b）为准晶生长过程产生的亚稳结构.}}{6}{figure.1.8}}
\newlabel{fig:test1}{{1.8}{6}{(a)为M. Schmiedeberg等人实验初值设置.（b）为准晶生长过程产生的亚稳结构}{figure.1.8}{}}
\@writefile{lof}{\contentsline {figure}{\numberline {1.9}{\ignorespaces 模拟初始设置, 底层绿色为完美十转准晶, 注入颗粒红色被沉积.}}{7}{figure.1.9}}
\newlabel{fig:test1}{{1.9}{7}{模拟初始设置, 底层绿色为完美十转准晶, 注入颗粒红色被沉积}{figure.1.9}{}}
\@writefile{toc}{\contentsline {section}{\numberline {1.3}研究方法概述}{7}{section.1.3}}
\@writefile{toc}{\contentsline {subsection}{\numberline {1.3.1}经典密度泛函理论}{7}{subsection.1.3.1}}
\@writefile{toc}{\contentsline {subsection}{\numberline {1.3.2}分子动力学}{8}{subsection.1.3.2}}
\@writefile{toc}{\contentsline {section}{\numberline {1.4}问题提出}{9}{section.1.4}}
\@writefile{toc}{\contentsline {section}{\numberline {1.5}本文的研究内容的和内容框架}{10}{section.1.5}}
\@setckpt{body/introduction}{
\setcounter{page}{11}
\setcounter{equation}{0}
\setcounter{enumi}{0}
\setcounter{enumii}{0}
\setcounter{enumiii}{0}
\setcounter{enumiv}{0}
\setcounter{footnote}{0}
\setcounter{mpfootnote}{0}
\setcounter{CTEX@sectiondepth}{2}
\setcounter{part}{0}
\setcounter{chapter}{1}
\setcounter{section}{5}
\setcounter{subsection}{0}
\setcounter{subsubsection}{0}
\setcounter{paragraph}{0}
\setcounter{subparagraph}{0}
\setcounter{figure}{9}
\setcounter{table}{1}
\setcounter{fontspec_tmp_int}{0}
\setcounter{parentequation}{0}
\setcounter{Item}{0}
\setcounter{Hfootnote}{0}
\setcounter{Hy@AnnotLevel}{0}
\setcounter{bookmark@seq@number}{10}
\setcounter{AlgoLine}{0}
\setcounter{algocfline}{0}
\setcounter{algocfproc}{0}
\setcounter{algocf}{0}
\setcounter{definition}{0}
\setcounter{proposition}{0}
\setcounter{property}{0}
\setcounter{lemma}{0}
\setcounter{theorem}{0}
\setcounter{corollary}{0}
\setcounter{example}{0}
\setcounter{remark}{0}
\setcounter{section@level}{1}
}
