\relax 
\@writefile{loa}{\addvspace {10\p@ }}
\@writefile{toc}{\contentsline {chapter}{\numberline {第4\ignorespaces  章\hspace  {0.3em}}数值实验}{22}{chapter.4}}
\@writefile{lof}{\addvspace {10\p@ }}
\@writefile{lot}{\addvspace {10\p@ }}
\@writefile{toc}{\contentsline {section}{\numberline {4.1}数值方法的有效性}{22}{section.4.1}}
\@writefile{lof}{\contentsline {figure}{\numberline {4.1}{\ignorespaces 图中(a)-(d)为六转晶体的初值和收敛相以及误差的二范数变化图像和能量的变化图像, (e)-(h)为十二准晶结构的初值和收敛相以及误差的二范数变化图像和能量的变化图像.}}{22}{figure.4.1}}
\newlabel{fig:test2}{{4.1}{22}{图中(a)-(d)为六转晶体的初值和收敛相以及误差的二范数变化图像和能量的变化图像, (e)-(h)为十二准晶结构的初值和收敛相以及误差的二范数变化图像和能量的变化图像}{figure.4.1}{}}
\@writefile{lot}{\contentsline {table}{\numberline {4.1}{\ignorespaces 半隐傅里叶拟谱法的误差和误差阶}}{23}{table.4.1}}
\newlabel{tab:test}{{4.1}{23}{半隐傅里叶拟谱法的误差和误差阶\relax }{table.4.1}{}}
\@writefile{toc}{\contentsline {section}{\numberline {4.2}两尺度模型下晶体种子的两种生长模式}{23}{section.4.2}}
\@writefile{toc}{\contentsline {subsection}{\numberline {4.2.1}第一种生长模式}{23}{subsection.4.2.1}}
\@writefile{toc}{\contentsline {subsection}{\numberline {4.2.2}第二种生长模式}{23}{subsection.4.2.2}}
\@writefile{lof}{\contentsline {figure}{\numberline {4.2}{\ignorespaces 图中纵坐标表示温度参数$\varepsilon $, 图中横坐标表示晶体种子晶粒的圈数, $\mathaccentV {bar}C16{\psi }=-0.18$.}}{24}{figure.4.2}}
\newlabel{fig:test2}{{4.2}{24}{图中纵坐标表示温度参数$\varepsilon $, 图中横坐标表示晶体种子晶粒的圈数, $\bar {\psi }=-0.18$}{figure.4.2}{}}
\@writefile{lof}{\contentsline {figure}{\numberline {4.3}{\ignorespaces $\varepsilon =0.3，\mathaccentV {bar}C16{\psi }=-0.18，c=1$,收敛相为压缩六转晶体.}}{24}{figure.4.3}}
\newlabel{fig:test2}{{4.3}{24}{$\varepsilon =0.3，\bar {\psi }=-0.18，c=1$,收敛相为压缩六转晶体}{figure.4.3}{}}
\@writefile{lof}{\contentsline {figure}{\numberline {4.4}{\ignorespaces $\varepsilon =0.3，\mathaccentV {bar}C16{\psi }=-0.18，c=8$,收敛相为压缩六转晶体.}}{25}{figure.4.4}}
\newlabel{fig:test2}{{4.4}{25}{$\varepsilon =0.3，\bar {\psi }=-0.18，c=8$,收敛相为压缩六转晶体}{figure.4.4}{}}
\@writefile{lof}{\contentsline {figure}{\numberline {4.5}{\ignorespaces 图中第一行和第二行是$\varepsilon =0.018$的晶体生长过程, 其中晶粒的圈数为$c=1$.}}{25}{figure.4.5}}
\newlabel{fig:test2}{{4.5}{25}{图中第一行和第二行是$\varepsilon =0.018$的晶体生长过程, 其中晶粒的圈数为$c=1$}{figure.4.5}{}}
\@writefile{lof}{\contentsline {figure}{\numberline {4.6}{\ignorespaces 图中纵坐标表示温度参数$\varepsilon $, 图中横坐标表示晶体种子晶粒的圈数, $\mathaccentV {bar}C16{\psi }=-0.314$.}}{26}{figure.4.6}}
\newlabel{fig:test2}{{4.6}{26}{图中纵坐标表示温度参数$\varepsilon $, 图中横坐标表示晶体种子晶粒的圈数, $\bar {\psi }=-0.314$}{figure.4.6}{}}
\@writefile{lof}{\contentsline {figure}{\numberline {4.7}{\ignorespaces $\varepsilon =0.3, \mathaccentV {bar}C16{\psi }=-0.314，c=3$,收敛相为不均匀压缩六转晶体.}}{26}{figure.4.7}}
\newlabel{fig:test2}{{4.7}{26}{$\varepsilon =0.3, \bar {\psi }=-0.314，c=3$,收敛相为不均匀压缩六转晶体}{figure.4.7}{}}
\@writefile{lof}{\contentsline {figure}{\numberline {4.8}{\ignorespaces 图中第一行和第二行是 $\varepsilon =0.3 $的晶体生长过程, 其中晶粒的圈数为$c=1$.}}{26}{figure.4.8}}
\newlabel{fig:test3}{{4.8}{26}{图中第一行和第二行是 $\varepsilon =0.3 $的晶体生长过程, 其中晶粒的圈数为$c=1$}{figure.4.8}{}}
\@writefile{toc}{\contentsline {section}{\numberline {4.3}两种子晶体准晶生长}{27}{section.4.3}}
\@writefile{toc}{\contentsline {subsection}{\numberline {4.3.1}固定种子距离$d$}{27}{subsection.4.3.1}}
\@writefile{lof}{\contentsline {figure}{\numberline {4.9}{\ignorespaces 蓝线左边的生长相为流体, 蓝色线和红色线之间的生长相为准晶体, 红色和橘色之间的生长相为六转晶体, 橘色色线右边的生长相为层状相.}}{27}{figure.4.9}}
\newlabel{fig:test1}{{4.9}{27}{蓝线左边的生长相为流体, 蓝色线和红色线之间的生长相为准晶体, 红色和橘色之间的生长相为六转晶体, 橘色色线右边的生长相为层状相}{figure.4.9}{}}
\@writefile{toc}{\contentsline {subsection}{\numberline {4.3.2}旋转准晶种子}{27}{subsection.4.3.2}}
\@writefile{lof}{\contentsline {figure}{\numberline {4.10}{\ignorespaces 图(a)为$\varepsilon =0.25, \mathaccentV {bar}C16{\psi }=-0.165$生长相,图(b)为$\varepsilon =1.25, \mathaccentV {bar}C16{\psi }=-0.618$生长相,其中$d=30a$.}}{28}{figure.4.10}}
\newlabel{fig:test1}{{4.10}{28}{图(a)为$\varepsilon =0.25, \bar {\psi }=-0.165$生长相,图(b)为$\varepsilon =1.25, \bar {\psi }=-0.618$生长相,其中$d=30a$}{figure.4.10}{}}
\@writefile{toc}{\contentsline {subsection}{\numberline {4.3.3}旋转晶体种子}{28}{subsection.4.3.3}}
\@writefile{lof}{\contentsline {figure}{\numberline {4.11}{\ignorespaces 图中是$\varepsilon =1.45, \mathaccentV {bar}C16{\psi }=-0.688$, 两种子之间距离为$30a$, 晶体种子旋转2°收敛相.}}{29}{figure.4.11}}
\@writefile{toc}{\contentsline {subsubsection}{改变种子距离}{30}{section*.4}}
\@writefile{lof}{\contentsline {figure}{\numberline {4.12}{\ignorespaces 图中为$\varepsilon =1.45, \mathaccentV {bar}C16{\psi }=-0.688$晶体种子旋转24°, 距离$d=30a$的生长过程.}}{31}{figure.4.12}}
\newlabel{fig:test1}{{4.12}{31}{图中为$\varepsilon =1.45, \bar {\psi }=-0.688$晶体种子旋转24°, 距离$d=30a$的生长过程}{figure.4.12}{}}
\@writefile{lof}{\contentsline {figure}{\numberline {4.13}{\ignorespaces 图中为$\varepsilon =1.45, \mathaccentV {bar}C16{\psi }=-0.688$晶体种子旋转2°, 距离$d=30a$的生长过程.}}{32}{figure.4.13}}
\newlabel{fig:test1}{{4.13}{32}{图中为$\varepsilon =1.45, \bar {\psi }=-0.688$晶体种子旋转2°, 距离$d=30a$的生长过程}{figure.4.13}{}}
\@writefile{toc}{\contentsline {section}{\numberline {4.4}准晶背景下的晶体生长}{33}{section.4.4}}
\@writefile{toc}{\contentsline {subsubsection}{参数设置}{33}{section*.5}}
\@writefile{lof}{\contentsline {figure}{\numberline {4.14}{\ignorespaces 如图, 外围为十二转准晶种子, 中间为六转晶体.且晶体种子发生旋转, 角度为$\theta =4°$.}}{33}{figure.4.14}}
\newlabel{fig:test1}{{4.14}{33}{如图, 外围为十二转准晶种子, 中间为六转晶体.且晶体种子发生旋转, 角度为$\theta =4°$}{figure.4.14}{}}
\@writefile{toc}{\contentsline {subsubsection}{准晶背景下的晶体生长}{33}{section*.6}}
\@writefile{lof}{\contentsline {figure}{\numberline {4.15}{\ignorespaces 横坐标为计算区域长度和$2 \pi $的比值, 纵坐标为误差.}}{34}{figure.4.15}}
\newlabel{fig:test1}{{4.15}{34}{横坐标为计算区域长度和$2 \pi $的比值, 纵坐标为误差}{figure.4.15}{}}
\@writefile{lof}{\contentsline {figure}{\numberline {4.16}{\ignorespaces 图中, 晶种的旋转角度为6°, (b)-(f)晶种半径$r=3.3a$的生长过程:(g)-(j)晶种半径$r=3.34a$的生长过程:(k)-(n)晶种半径$r=3.525a$的生长过程.}}{35}{figure.4.16}}
\newlabel{fig:test1}{{4.16}{35}{图中, 晶种的旋转角度为6°, (b)-(f)晶种半径$r=3.3a$的生长过程:(g)-(j)晶种半径$r=3.34a$的生长过程:(k)-(n)晶种半径$r=3.525a$的生长过程}{figure.4.16}{}}
\@writefile{lof}{\contentsline {figure}{\numberline {4.17}{\ignorespaces 蓝线左边的生长相为准晶, 蓝色线和红色线之间的生长相为准晶和晶体共存, 红色线右边的生长相为晶体相. 纵坐标为晶体旋转的度数, 横坐标为晶体半径和a的比值.}}{35}{figure.4.17}}
\newlabel{fig:test1}{{4.17}{35}{蓝线左边的生长相为准晶, 蓝色线和红色线之间的生长相为准晶和晶体共存, 红色线右边的生长相为晶体相. 纵坐标为晶体旋转的度数, 横坐标为晶体半径和a的比值}{figure.4.17}{}}
\@setckpt{body/jg}{
\setcounter{page}{36}
\setcounter{equation}{1}
\setcounter{enumi}{0}
\setcounter{enumii}{0}
\setcounter{enumiii}{0}
\setcounter{enumiv}{0}
\setcounter{footnote}{0}
\setcounter{mpfootnote}{0}
\setcounter{CTEX@sectiondepth}{2}
\setcounter{part}{0}
\setcounter{chapter}{4}
\setcounter{section}{4}
\setcounter{subsection}{0}
\setcounter{subsubsection}{0}
\setcounter{paragraph}{0}
\setcounter{subparagraph}{0}
\setcounter{figure}{17}
\setcounter{table}{1}
\setcounter{fontspec_tmp_int}{0}
\setcounter{parentequation}{0}
\setcounter{Item}{0}
\setcounter{Hfootnote}{0}
\setcounter{Hy@AnnotLevel}{0}
\setcounter{bookmark@seq@number}{27}
\setcounter{AlgoLine}{0}
\setcounter{algocfline}{0}
\setcounter{algocfproc}{0}
\setcounter{algocf}{0}
\setcounter{definition}{0}
\setcounter{proposition}{0}
\setcounter{property}{0}
\setcounter{lemma}{0}
\setcounter{theorem}{0}
\setcounter{corollary}{0}
\setcounter{example}{0}
\setcounter{remark}{0}
\setcounter{section@level}{3}
\setcounter{thm}{0}
}
