\relax 
\@writefile{loa}{\addvspace {10\p@ }}
\@writefile{toc}{\contentsline {chapter}{\numberline {第7\ignorespaces  章\hspace  {0.3em}}以不同比例晶体、准晶、流体为初值的晶体生长模拟}{40}{chapter.7}}
\@writefile{lof}{\addvspace {10\p@ }}
\@writefile{lot}{\addvspace {10\p@ }}
\newlabel{seven}{{7}{40}{以不同比例晶体、准晶、流体为初值的晶体生长模拟\relax }{chapter.7}{}}
\@writefile{toc}{\contentsline {subsection}{\numberline {7.0.2}参数}{40}{subsection.7.0.2}}
\@writefile{toc}{\contentsline {section}{\numberline {7.1}$\mathaccentV {bar}C16{\psi }＝-0.314,\epsilon =0.22$的晶体生长模拟}{40}{section.7.1}}
\@writefile{lof}{\contentsline {figure}{\numberline {7.1}{\ignorespaces 纵坐标为晶体初值矩形区域宽度和Ｌ的比值，横坐标为准晶初值矩形区域宽度和Ｌ的比值。}}{41}{figure.7.1}}
\newlabel{fig:test1}{{7.1}{41}{纵坐标为晶体初值矩形区域宽度和Ｌ的比值，横坐标为准晶初值矩形区域宽度和Ｌ的比值。\relax }{figure.7.1}{}}
\@writefile{lof}{\contentsline {figure}{\numberline {7.2}{\ignorespaces 左侧为六转晶体，右侧为十二转准晶中间为流体}}{41}{figure.7.2}}
\newlabel{fig:test1}{{7.2}{41}{左侧为六转晶体，右侧为十二转准晶中间为流体\relax }{figure.7.2}{}}
\@writefile{toc}{\contentsline {section}{\numberline {7.2}$\mathaccentV {bar}C16{\psi }＝-0.63,\epsilon =1.25$的晶体准晶生长模拟}{41}{section.7.2}}
\@writefile{lof}{\contentsline {figure}{\numberline {7.3}{\ignorespaces 纵坐标为晶体初值矩形区域宽度和Ｌ的比值，横坐标为准晶初值矩形区域宽度和Ｌ的比值。蓝色为六转晶体，黄色为中间相，绿色为准晶。}}{41}{figure.7.3}}
\newlabel{fig:test1}{{7.3}{41}{纵坐标为晶体初值矩形区域宽度和Ｌ的比值，横坐标为准晶初值矩形区域宽度和Ｌ的比值。蓝色为六转晶体，黄色为中间相，绿色为准晶。\relax }{figure.7.3}{}}
\@writefile{lof}{\contentsline {figure}{\numberline {7.4}{\ignorespaces $r_1=0.1*L,r_2=0.3*L$的收敛相}}{42}{figure.7.4}}
\newlabel{fig:test1}{{7.4}{42}{$r_1=0.1*L,r_2=0.3*L$的收敛相\relax }{figure.7.4}{}}
\@writefile{toc}{\contentsline {section}{\numberline {7.3}$\mathaccentV {bar}C16{\psi }＝-0.1,\epsilon =0.22$的晶体生长模拟}{42}{section.7.3}}
\@writefile{lof}{\contentsline {figure}{\numberline {7.5}{\ignorespaces 图为$r_1=0.1*L,r_2=0.44*L$,$\mathaccentV {bar}C16{\psi }=-0.63,\epsilon =1.25$生长过程。}}{43}{figure.7.5}}
\newlabel{fig:test1}{{7.5}{43}{图为$r_1=0.1*L,r_2=0.44*L$,$\bar {\psi }=-0.63,\epsilon =1.25$生长过程。\relax }{figure.7.5}{}}
\@writefile{lof}{\contentsline {figure}{\numberline {7.6}{\ignorespaces 图为$r_1=0.1*L,r_2=0.1*L$,$\mathaccentV {bar}C16{\psi }=-0.63,\epsilon =1.25$生长过程。}}{44}{figure.7.6}}
\newlabel{fig:test1}{{7.6}{44}{图为$r_1=0.1*L,r_2=0.1*L$,$\bar {\psi }=-0.63,\epsilon =1.25$生长过程。\relax }{figure.7.6}{}}
\@writefile{lof}{\contentsline {figure}{\numberline {7.7}{\ignorespaces 图为$r_1=0.1*L,r_2=0.3*L$,$\mathaccentV {bar}C16{\psi }=-0.63,\epsilon =1.25$生长过程。}}{45}{figure.7.7}}
\newlabel{fig:test1}{{7.7}{45}{图为$r_1=0.1*L,r_2=0.3*L$,$\bar {\psi }=-0.63,\epsilon =1.25$生长过程。\relax }{figure.7.7}{}}
\@writefile{lof}{\contentsline {figure}{\numberline {7.8}{\ignorespaces 图为$r_1=0.1*L,r_2=0.3*L$,$\mathaccentV {bar}C16{\psi }=-0.1 \epsilon =0.22$生长过程。}}{46}{figure.7.8}}
\newlabel{fig:test1}{{7.8}{46}{图为$r_1=0.1*L,r_2=0.3*L$,$\bar {\psi }=-0.1 \epsilon =0.22$生长过程。\relax }{figure.7.8}{}}
\@writefile{lof}{\contentsline {figure}{\numberline {7.9}{\ignorespaces 图为$r_1=0.1*L,r_2=0.1*L$,$\mathaccentV {bar}C16{\psi }=-0.1\epsilon =0.22$的收敛相}}{46}{figure.7.9}}
\newlabel{fig:test1}{{7.9}{46}{图为$r_1=0.1*L,r_2=0.1*L$,$\bar {\psi }=-0.1\epsilon =0.22$的收敛相\relax }{figure.7.9}{}}
\@setckpt{body/seven}{
\setcounter{page}{47}
\setcounter{equation}{0}
\setcounter{enumi}{0}
\setcounter{enumii}{0}
\setcounter{enumiii}{0}
\setcounter{enumiv}{0}
\setcounter{footnote}{0}
\setcounter{mpfootnote}{0}
\setcounter{CTEX@sectiondepth}{2}
\setcounter{part}{0}
\setcounter{chapter}{7}
\setcounter{section}{3}
\setcounter{subsection}{0}
\setcounter{subsubsection}{0}
\setcounter{paragraph}{0}
\setcounter{subparagraph}{0}
\setcounter{figure}{9}
\setcounter{table}{0}
\setcounter{fontspec_tmp_int}{0}
\setcounter{parentequation}{0}
\setcounter{Item}{0}
\setcounter{Hfootnote}{0}
\setcounter{Hy@AnnotLevel}{0}
\setcounter{bookmark@seq@number}{34}
\setcounter{AlgoLine}{0}
\setcounter{algocfline}{0}
\setcounter{algocfproc}{0}
\setcounter{algocf}{0}
\setcounter{definition}{0}
\setcounter{proposition}{0}
\setcounter{property}{0}
\setcounter{lemma}{0}
\setcounter{theorem}{0}
\setcounter{corollary}{0}
\setcounter{example}{0}
\setcounter{remark}{0}
\setcounter{section@level}{1}
\setcounter{thm}{0}
}
