\relax 
\@writefile{loa}{\addvspace {10\p@ }}
\@writefile{toc}{\contentsline {chapter}{致谢}{39}{chapter*.8}}
\@setckpt{body/thank}{
\setcounter{page}{40}
\setcounter{equation}{0}
\setcounter{enumi}{0}
\setcounter{enumii}{0}
\setcounter{enumiii}{0}
\setcounter{enumiv}{32}
\setcounter{footnote}{0}
\setcounter{mpfootnote}{0}
\setcounter{CTEX@sectiondepth}{2}
\setcounter{part}{0}
\setcounter{chapter}{5}
\setcounter{section}{0}
\setcounter{subsection}{0}
\setcounter{subsubsection}{0}
\setcounter{paragraph}{0}
\setcounter{subparagraph}{0}
\setcounter{figure}{0}
\setcounter{table}{0}
\setcounter{fontspec_tmp_int}{0}
\setcounter{parentequation}{0}
\setcounter{Item}{0}
\setcounter{Hfootnote}{0}
\setcounter{Hy@AnnotLevel}{0}
\setcounter{bookmark@seq@number}{29}
\setcounter{AlgoLine}{0}
\setcounter{algocfline}{0}
\setcounter{algocfproc}{0}
\setcounter{algocf}{0}
\setcounter{definition}{0}
\setcounter{proposition}{0}
\setcounter{property}{0}
\setcounter{lemma}{0}
\setcounter{theorem}{0}
\setcounter{corollary}{0}
\setcounter{example}{0}
\setcounter{remark}{0}
\setcounter{section@level}{3}
\setcounter{thm}{0}
}
