\relax 
\citation{rottler2012}
\citation{barkan2014}
\@writefile{loa}{\addvspace {10\p@ }}
\@writefile{toc}{\contentsline {chapter}{\numberline {第2\ignorespaces  章\hspace  {0.3em}}相场晶体模型介绍}{11}{chapter.2}}
\@writefile{lof}{\addvspace {10\p@ }}
\@writefile{lot}{\addvspace {10\p@ }}
\@writefile{toc}{\contentsline {section}{\numberline {2.1}自由能泛函}{11}{section.2.1}}
\@writefile{toc}{\contentsline {section}{\numberline {2.2}Cahn-Hilliard方程}{13}{section.2.2}}
\@setckpt{body/thesisformat}{
\setcounter{page}{14}
\setcounter{equation}{13}
\setcounter{enumi}{0}
\setcounter{enumii}{0}
\setcounter{enumiii}{0}
\setcounter{enumiv}{0}
\setcounter{footnote}{0}
\setcounter{mpfootnote}{0}
\setcounter{CTEX@sectiondepth}{2}
\setcounter{part}{0}
\setcounter{chapter}{2}
\setcounter{section}{2}
\setcounter{subsection}{0}
\setcounter{subsubsection}{0}
\setcounter{paragraph}{0}
\setcounter{subparagraph}{0}
\setcounter{figure}{0}
\setcounter{table}{0}
\setcounter{fontspec_tmp_int}{0}
\setcounter{parentequation}{0}
\setcounter{Item}{0}
\setcounter{Hfootnote}{0}
\setcounter{Hy@AnnotLevel}{0}
\setcounter{bookmark@seq@number}{13}
\setcounter{AlgoLine}{0}
\setcounter{algocfline}{0}
\setcounter{algocfproc}{0}
\setcounter{algocf}{0}
\setcounter{definition}{0}
\setcounter{proposition}{0}
\setcounter{property}{0}
\setcounter{lemma}{0}
\setcounter{theorem}{0}
\setcounter{corollary}{0}
\setcounter{example}{0}
\setcounter{remark}{0}
\setcounter{section@level}{1}
}
