\relax 
\providecommand\HyperFirstAtBeginDocument{\AtBeginDocument}
\HyperFirstAtBeginDocument{\ifx\hyper@anchor\@undefined
\global\let\oldcontentsline\contentsline
\gdef\contentsline#1#2#3#4{\oldcontentsline{#1}{#2}{#3}}
\global\let\oldnewlabel\newlabel
\gdef\newlabel#1#2{\newlabelxx{#1}#2}
\gdef\newlabelxx#1#2#3#4#5#6{\oldnewlabel{#1}{{#2}{#3}}}
\AtEndDocument{\ifx\hyper@anchor\@undefined
\let\contentsline\oldcontentsline
\let\newlabel\oldnewlabel
\fi}
\fi}
\global\let\hyper@last\relax 
\gdef\HyperFirstAtBeginDocument#1{#1}
\providecommand*\HyPL@Entry[1]{}
\@input{preface/cover.aux}
\HyPL@Entry{0<</S/D>>}
\@input{preface/license.aux}
\@input{preface/abstract.aux}
\HyPL@Entry{4<</S/R>>}
\@writefile{loa}{\addvspace {10\p@ }}
\@input{body/introduction.aux}
\HyPL@Entry{9<</S/D>>}
\@input{body/thesisformat.aux}
\@input{body/bibliography.aux}
\@input{body/jg.aux}
\@input{body/elements.aux}
\@input{reference/references.aux}
\bibcite{elder1937}{1}
\bibcite{elder1998}{2}
\bibcite{elder2013}{3}
\bibcite{rottler2012}{4}
\bibcite{barkan2010}{5}
\bibcite{barkan2008}{6}
\bibcite{barkan2010}{7}
\bibcite{barkan2007}{8}
\bibcite{barkan1999}{9}
\bibcite{barkan2007}{10}
\bibcite{barkan2000}{11}
\bibcite{barkan2014}{12}
\bibcite{barkan2017}{13}
\bibcite{barkan2012}{14}
\bibcite{barkan2016}{15}
\bibcite{barkan2013}{16}
\bibcite{barkan2017}{17}
\bibcite{barkan2017}{18}
\@writefile{loa}{\addvspace {10\p@ }}
\bibcite{barkan2008}{19}
\bibcite{barkan2018}{20}
\bibcite{barkan2019}{21}
\bibcite{barkan2018}{22}
\bibcite{barkan2019}{23}
\bibcite{barkan2019}{24}
\bibcite{barkan2019}{25}
\bibcite{barkan2019}{26}
\bibcite{barkan2019}{27}
\bibcite{barkan2019}{28}
\bibcite{barkan2019}{29}
\bibcite{barkan2019}{30}
\bibcite{barkan2019}{31}
\bibcite{barkan2019}{32}
\@input{body/thank.aux}
